…
ci_df <- bind_rows(ci_list)

ci_df %>%
  mutate(captured = lwr < true & upr > true)
```

```
## # A tibble: 75 × 6
##    coef_name    true    lwr    upr bs_id captured
##    <chr>       <dbl>  <dbl>  <dbl> <int> <lgl>   
##  1 (Intercept)   1    0.422  2.17      1 TRUE    
##  2 x1            1    0.623  4.30      1 TRUE    
##  3 x2           -0.5 -3.29  -0.521     1 FALSE   
##  4 (Intercept)   1    0.658  3.03      2 TRUE    
##  5 x1            1   -0.463  1.62      2 TRUE    
##  6 x2           -0.5 -3.06   0.492     2 TRUE    
##  7 (Intercept)   1    0.219  1.51      3 TRUE    
##  8 x1            1   -0.429  1.52      3 TRUE    
##  9 x2           -0.5 -1.18   0.957     3 TRUE    
## 10 (Intercept)   1    1.25   3.00      4 FALSE   
## # … with 65 more rows
```
…
