…
ci_df <- bind_rows(ci_list)

ci_df %>%
  mutate(captured = lwr < true & upr > true)
```

```
## # A tibble: 75 × 6
##    coef_name    true    lwr    upr bs_id captured
##    <chr>       <dbl>  <dbl>  <dbl> <int> <lgl>   
##  1 (Intercept)   1    0.149  1.30      1 TRUE    
##  2 x1            1   -0.887  0.893     1 FALSE   
##  3 x2           -0.5 -0.936  0.934     1 TRUE    
##  4 (Intercept)   1    0.450  2.29      2 TRUE    
##  5 x1            1   -0.614  1.66      2 TRUE    
##  6 x2           -0.5 -2.09  -0.554     2 FALSE   
##  7 (Intercept)   1    0.445  2.04      3 TRUE    
##  8 x1            1   -1.11   1.61      3 TRUE    
##  9 x2           -0.5 -0.755  1.61      3 TRUE    
## 10 (Intercept)   1   -0.413  1.11      4 TRUE    
## # … with 65 more rows
```
…
